{"order_number": "AP-1","service_type": "GO_RIDE","driver_id": "driver-123","customer_id": "customer-123","service_area_name": "JAKARTA","payment_type": "GO_CASH","status": "IN_PROGRESS","event_timestamp": "2018-03-29T14:00:00.001Z","other_passenger_ids" : ["passenger-123", "passenger-456"]}
{"order_number": "AP-2","service_type": "GO_RIDE","driver_id": "driver-123","customer_id": "customer-123","service_area_name": "JAKARTA","payment_type": "GO_CASH","status": "COMPLETED","event_timestamp": "2018-03-29T14:00:00.001Z","other_passenger_ids" : ["passenger-123", "passenger-456"]}
{"order_number": "AP-3","service_type": "GO_INTERVIEW","interviewer_ids": ["interviewer-123", "interviewer-456"],"interviewee_id": "interviewee-123","service_area_name": "JAKARTA","payment_type": "GO_CASH","status": "COMPLETED","event_timestamp": "2018-03-29T14:00:00.001Z"}
{"order_number": "AP-4","service_type": "GO_RIDE","driver_id": "driver-123","customer_id": "customer-123","service_area_name": "JAKARTA","payment_type": "GO_CASH","status": "COMPLETED","event_timestamp": "2018-03-29T14:00:00.001Z","other_passenger_ids" : ["passenger-123", "passenger-456"]}
{"order_number": "AP-5","service_type": "GO_INTERVIEW","interviewer_ids": ["interviewer-123", "interviewer-456"],"interviewee_id": "interviewee-123","service_area_name": "JAKARTA","payment_type": "GO_CASH","status": "COMPLETED","event_timestamp": "2018-03-29T14:00:00.001Z"}
{"order_number": "AP-1","service_type": "GO_RIDE","driver_id": "driver-123","customer_id": "customer-123","service_area_name": "JAKARTA","payment_type": "GO_CASH","status": "COMPLETED","event_timestamp": "2018-03-29T14:00:00.001Z","other_passenger_ids" : ["passenger-123", "passenger-456"]}
{"order_number": "AP-6","service_type": "GO_RIDE","driver_id": "driver-123","customer_id": "customer-123","service_area_name": "JAKARTA","payment_type": "GO_CASH","status": "COMPLETED","event_timestamp": "2018-03-29T14:00:00.001Z","other_passenger_ids" : ["passenger-123", "passenger-456"]}
{"order_number": "AP-7","service_type": "GO_RIDE","driver_id": "driver-123","customer_id": "customer-123","service_area_name": "BANDUNG","payment_type": "GO_CASH","status": "COMPLETED","event_timestamp": "2018-03-29T14:00:00.001Z","other_passenger_ids" : ["passenger-123", "passenger-456"]}
{"order_number": "AP-8","service_type": "GO_RIDE","driver_id": "driver-123","customer_id": "customer-123","service_area_name": "JAKARTA","payment_type": "GO_CASH","status": "COMPLETED","event_timestamp": "2018-03-29T14:00:00.001Z","other_passenger_ids" : ["passenger-123", "passenger-456"]}
{"order_number": "AP-9","service_type": "GO_RIDE","driver_id": "driver-123","customer_id": "customer-123","service_area_name": "BANDUNG","payment_type": "GO_CASH","status": "COMPLETED","event_timestamp": "2018-03-29T14:00:00.001Z","other_passenger_ids" : ["passenger-123", "passenger-456"]}
{"order_number": "AP-10","service_type": "GO_INTERVIEW","interviewer_ids": ["interviewer-123", "interviewer-456"],"interviewee_id": "interviewee-123","service_area_name": "JAKARTA","payment_type": "GO_CASH","status": "COMPLETED","event_timestamp": "2018-03-29T14:00:00.001Z"}
{"order_number": "AP-11","service_type": "GO_RIDE","driver_id": "driver-123","customer_id": "customer-123","service_area_name": "JAKARTA","payment_type": "GO_CASH","status": "COMPLETED","event_timestamp": "2018-03-29T14:00:00.001Z","other_passenger_ids" : ["passenger-123", "passenger-456"]}
{"order_number": "AP-12","service_type": "GO_INTERVIEW","interviewer_ids": ["interviewer-123", "interviewer-456"],"interviewee_id": "interviewee-123","service_area_name": "JAKARTA","payment_type": "GO_CASH","status": "COMPLETED","event_timestamp": "2018-03-29T14:00:00.001Z"}
{"order_number": "AP-13","service_type": "GO_RIDE","driver_id": "driver-123","customer_id": "customer-123","service_area_name": "JAKARTA","payment_type": "GO_CASH","status": "COMPLETED","event_timestamp": "2018-03-29T14:00:00.001Z","other_passenger_ids" : ["passenger-123", "passenger-456"]}
{"order_number": "AP-14","service_type": "GO_INTERVIEW","interviewer_ids": ["interviewer-123", "interviewer-456"],"interviewee_id": "interviewee-123","service_area_name": "JAKARTA","payment_type": "GO_CASH","status": "COMPLETED","event_timestamp": "2018-03-29T14:00:00.001Z"}
{"order_number": "AP-15","service_type": "GO_RIDE","driver_id": "driver-123","customer_id": "customer-123","service_area_name": "BANDUNG","payment_type": "GO_CASH","status": "COMPLETED","event_timestamp": "2018-03-29T14:00:00.001Z","other_passenger_ids" : ["passenger-123", "passenger-456"]}
{"order_number": "AP-16","service_type": "GO_INTERVIEW","interviewer_ids": ["interviewer-123", "interviewer-456"],"interviewee_id": "interviewee-123","service_area_name": "JAKARTA","payment_type": "GO_CASH","status": "COMPLETED","event_timestamp": "2018-03-29T14:00:00.001Z"}
{"order_number": "AP-17","service_type": "GO_RIDE","driver_id": "driver-123","customer_id": "customer-123","service_area_name": "JAKARTA","payment_type": "GO_CASH","status": "COMPLETED","event_timestamp": "2018-03-29T14:00:00.001Z","other_passenger_ids" : ["passenger-123", "passenger-456"]}
{"order_number": "AP-18","service_type": "GO_INTERVIEW","interviewer_ids": ["interviewer-123", "interviewer-456"],"interviewee_id": "interviewee-123","service_area_name": "JAKARTA","payment_type": "GO_CASH","status": "COMPLETED","event_timestamp": "2018-03-29T14:00:00.001Z"}
{"order_number": "AP-19","service_type": "GO_RIDE","driver_id": "driver-123","customer_id": "customer-123","service_area_name": "BANDUNG","payment_type": "GO_CASH","status": "COMPLETED","event_timestamp": "2018-03-29T14:00:00.001Z","other_passenger_ids" : ["passenger-123", "passenger-456"]}
{"order_number": "AP-20","service_type": "GO_INTERVIEW","interviewer_ids": ["interviewer-123", "interviewer-456"],"interviewee_id": "interviewee-123","service_area_name": "JAKARTA","payment_type": "GO_CASH","status": "COMPLETED","event_timestamp": "2018-03-29T14:00:00.001Z"}
